<svg xmlns="http://www.w3.org/2000/svg" xml:space="preserve" viewBox="0 0 3734.066 344.526">
  <path fill="#B14F47" stroke="#000" stroke-width="3" d="M3299.766 315.172c-3.657-8.715-18.469-6.511-22.518-.498-4.327 6.427-1.541 14.651 3.827 18.81 4.056 3.141 21.476 3.728 28.495-2.435 5.019-4.406 3.243-4.787 9.308-16.13 6.123-11.45 14.017-23.268 22.512-37.901-10.472-15.96-10.717-24.923-6.682-50.639l-67.492-27.41c.118 21.084 4.047 54.769 41.742 87.362-3.326 9.836-8.757 18.787-12.676 24.343"/>
  <path fill="#B14F47" d="M3266.544 197.768c8.134 37.408 54.021 44.968 111.034 87.607-.105 11.3-3.251 24.564-7.17 30.12l7.51 5.45c-6.95-6.446-22.807-8.584-28.21-.089-4.157 6.537-2.684 16.128 3.09 19.7 6.538 4.045 26.366 3.128 33.385-3.035 10.598-23.156 19.89-63.567 18.135-72.339-9.081-11.324-16.304-17.73-22.41-24.844 0 0 9.33-33.485 7.828-50.521-2.218-25.15-13.737-39.997-13.737-39.997 34.093-34.926 80.474-25.555 117.561-24.75 28.73.625 58.093-6.413 86.624-11.6 30.813-5.603 108.354 5.106 129.937-9.282 56.977-37.985-7.743-67.442-47.953-63.421-50.614 5.061-94.298 47.112-143.858 61.1-58.168 16.42-96.545-21.306-160.864 37.182-62.845-12.056-121.509 2.238-121.509 2.238-22.358 26.623-20.288 67.035-.406 94.433 5.772.781 14.095.49 23.114-.848 10.754-1.596 17.19-2.819 28.39-6.62"/>
  <path fill="#787878" d="M3235.937 141.287c15.22 5.844 9.657 27.47 8.718 40.633 4.004-.89 5.955-2.247 8.913-3.404-5.02 10.862-7.781 20.865-11.332 31.887 4.065-.321 5.683-1.015 9.234-2.516-5.61 12.711-10.728 22.928-15.939 27.833-19.882-27.398-21.952-67.81.406-94.433z"/>
  <path fill="none" stroke="#000" stroke-width="3" d="M3266.544 197.768c8.134 37.408 54.021 44.968 111.034 87.607-.105 11.3-3.251 24.564-7.17 30.12l7.51 5.45c-6.95-6.446-22.807-8.584-28.21-.089-4.157 6.537-2.684 16.128 3.09 19.7 6.538 4.045 26.366 3.128 33.385-3.035 10.598-23.156 19.89-63.567 18.135-72.339-9.081-11.324-16.304-17.73-22.41-24.844 0 0 9.33-33.485 7.828-50.521-2.218-25.15-13.737-39.997-13.737-39.997 34.093-34.926 80.474-25.555 117.561-24.75 28.73.625 58.093-6.413 86.624-11.6 30.813-5.603 108.354 5.106 129.937-9.282 56.977-37.985-7.743-67.442-47.953-63.421-50.614 5.061-94.298 47.112-143.858 61.1-58.168 16.42-96.545-21.306-160.864 37.182-62.845-12.056-121.509 2.238-121.509 2.238-22.358 26.623-20.288 67.035-.406 94.433 5.772.781 14.095.49 23.114-.848 10.754-1.596 17.19-2.819 28.39-6.62"/>
  <path fill="none" stroke="#000" stroke-width="3" d="M3235.531 235.72c5.211-4.905 10.33-15.122 15.94-27.833-3.552 1.501-5.17 2.195-9.235 2.516 3.55-11.022 6.313-21.025 11.332-31.887-2.958 1.157-4.909 2.514-8.913 3.404.939-13.163 6.502-34.79-8.718-40.633"/>
  <g fill="#b7b7b7" stroke="#000" stroke-width="2.797">
    <path d="M605.84 368.226s3.756-4.257 8.968-4.285c5.212-.028 9.247 4.307 9.247 4.307s3.741 14.901 3.737 29.58c-.004 14.678-3.737 29.878-3.737 29.878s-3.591 4.654-8.794 4.523c-5.202-.131-9.353-4.523-9.353-4.523" transform="matrix(1.15 .02 -.022 1 2524.7 -221.633)"/>
    <path d="M584.995 370.477s4.032-5.82 9.552-5.89c7.78-.097 11.326 3.664 11.326 3.664s3.85 16.975 3.846 31.654c-.005 14.678-3.846 27.805-3.846 27.805s-4.004 5.846-9.515 5.924c-6.496.092-10.53-3.878-10.53-3.878" transform="matrix(1.15 .02 -.022 1 2524.7 -221.633)"/>
    <path d="M565.127 369.704s4.04-4.237 9.735-4.266c5.696-.028 10.096 5.045 10.096 5.045s3.593 14.837 3.588 29.515c-.005 14.679-2.723 29.801-2.723 29.801s-4.827 3.98-10.512 3.849c-5.685-.132-9.731-5.687-9.731-5.687" transform="matrix(1.15 .02 -.022 1 2524.7 -221.633)"/>
    <path d="M546.886 430.692s3.763 3.856 9.009 3.987c5.246.132 9.65-6.695 9.65-6.695s2.843-12.635 2.848-27.314c.005-14.678-3.268-31.006-3.268-31.006s-4.218-2.834-9.43-2.16c-5.514.712-8.782 4.749-8.782 4.749" transform="matrix(1.15 .02 -.022 1 2524.7 -221.633)"/>
    <path d="M528.642 372.85s3.097-5.247 8.353-5.275c5.256-.028 10 4.678 10 4.678s2.064 11.632 2.064 26.642c0 15.009-2.14 31.775-2.14 31.775s-3.86 4.424-9.107 4.293c-5.246-.131-9.102-3.432-9.102-3.432" transform="matrix(1.15 .02 -.022 1 2524.7 -221.633)"/>
    <path d="M507.9 374.728s4.464-4.739 9.984-4.808c7.78-.098 10.894 2.582 10.894 2.582s1.972 16.865 1.968 31.543c-.005 14.679-1.968 27.915-1.968 27.915s-4.454 4.947-9.965 5.025c-6.496.092-10.08-2.978-10.08-2.978" transform="matrix(1.15 .02 -.022 1 2524.7 -221.633)"/>
    <path d="M488.708 375.843s4.829-5.82 10.35-5.89c7.78-.098 10.528 3.663 10.528 3.663s1.723 16.577 1.719 31.255c-.005 14.679-1.72 28.204-1.72 28.204s-4.453 4.946-9.964 5.024c-6.496.093-10.347-6.168-10.347-6.168" transform="matrix(1.15 .02 -.022 1 2524.7 -221.633)"/>
    <path d="M468.76 434.512s5.506 3.664 11.155 2.93c8.01-1.039 9.597-4.63 9.597-4.63s1.854-12.894 1.85-27.572c-.006-14.679-2.008-30.21-2.008-30.21s-4.839-4.713-10.524-4.582c-5.685.131-9.412 5.5-9.412 5.5" transform="matrix(1.15 .02 -.022 1 2524.7 -221.633)"/>
    <path d="M449.098 377.658s4.514-6.064 10.035-6.134c7.78-.097 10.41 4.39 10.41 4.39s2.972 10.738.868 31.18c-1.502 14.6-1.967 27.56-1.967 27.56s-3.865 4.712-9.376 4.79c-6.496.092-9.138-3.568-9.138-3.568" transform="matrix(1.15 .02 -.022 1 2524.7 -221.633)"/>
    <path d="M429.415 378.546s4.032-5.82 9.552-5.89c7.78-.098 11.326 3.664 11.326 3.664s3.302 16.7 3.298 31.379c-.005 14.678-3.298 28.08-3.298 28.08s-4.453 4.946-9.964 5.024c-6.497.092-10.081-2.978-10.081-2.978" transform="matrix(1.15 .02 -.022 1 2524.7 -221.633)"/>
    <path d="M411.158 378.09s3.718-3.023 8.93-3.05c5.212-.029 10.065 2.965 10.065 2.965s2.62 14.445 2.616 28.975c-.004 14.53-2.616 29.881-2.616 29.881s-4.541 2.881-9.744 2.751c-5.202-.13-9.09-2.487-9.09-2.487" transform="matrix(1.15 .02 -.022 1 2524.7 -221.633)"/>
    <path d="M393.79 377.74s2.92-4.145 8.133-4.174c5.212-.028 9.246 4.307 9.246 4.307s3.742 14.901 3.737 29.58c-.004 14.679-3.737 29.879-3.737 29.879s-3.59 4.653-8.793 4.522c-5.202-.131-8.685-4.355-8.685-4.355" transform="matrix(1.15 .02 -.022 1 2524.7 -221.633)"/>
    <path d="M373.938 379.796s3.53-5.71 8.772-6.002c7.769-.432 11.327 3.664 11.327 3.664s1.972 16.865 1.968 31.543c-.005 14.679-1.968 27.915-1.968 27.915s-4.364 3.864-9.875 3.942c-6.496.092-9.559-1.672-9.559-1.672" transform="matrix(1.15 .02 -.022 1 2524.7 -221.633)"/>
    <path d="M354.004 378.848s4.039-2.249 9.735-2.277c5.696-.028 10.096 3.056 10.096 3.056s3.593 14.837 3.588 29.515c-.005 14.679-2.723 29.801-2.723 29.801s-4.827 3.98-10.513 3.849c-5.685-.131-9.73-5.966-9.73-5.966" transform="matrix(1.15 .02 -.022 1 2524.7 -221.633)"/>
    <path d="M335.024 381.464s3.56-5.163 9.08-5.23c7.78-.095 9.999 3.163 9.999 3.163s1.845 14.562 2.381 34.295c.385 14.17-2.114 22.793-2.114 22.793s-3.865 4.548-9.376 4.623c-6.496.089-9.138-3.444-9.138-3.444" transform="matrix(1.15 .02 -.022 1 2524.7 -221.633)"/>
    <path d="M317.477 437.865s3.91 4.646 9.156 4.777c5.247.131 9.94-5.38 9.94-5.38s2.46-11.969 2.464-26.647c.005-14.679-2.885-31.674-2.885-31.674s-3.555-2.715-8.78-2.7c-5.56.014-9.726 3.71-9.726 3.71" transform="matrix(1.15 .02 -.022 1 2524.7 -221.633)"/>
    <path d="M300.385 380.872s3.417-4.212 8.63-4.24c5.212-.028 9.01 2.986 9.01 2.986s2.62 14.444 2.616 28.974c-.004 14.53-2.616 29.882-2.616 29.882s-3.481 3.162-8.684 3.032c-5.202-.13-10.15-2.768-10.15-2.768" transform="matrix(1.15 .02 -.022 1 2524.7 -221.633)"/>
    <path d="M279.831 382.673s4.573-5.531 10.269-5.56c5.696-.028 10.11 3.833 10.11 3.833s1.92 12.317 1.916 26.995c-.005 14.679-2.562 30.535-2.562 30.535s-4.402 3.087-10.087 2.956c-5.685-.131-10.014-5.37-10.014-5.37" transform="matrix(1.15 .02 -.022 1 2524.7 -221.633)"/>
    <path d="M262.412 382.214s3.613-4.395 8.869-4.429c5.256-.033 8.924 4.575 8.924 4.575s2.05 10.822 2.03 24.79c-.02 13.967-2.182 29.573-2.182 29.573s-4.12 4.653-9.365 4.538c-5.247-.116-8.374-1.97-8.374-1.97" transform="matrix(1.15 .02 -.022 1 2524.7 -221.633)"/>
    <path d="M243.787 381.605s3.884-5.19 9.14-5.218c5.257-.029 10.085 5.391 10.085 5.391s1.192 10.862 1.192 25.872c0 15.009-2.14 31.775-2.14 31.775s-3.86 4.424-9.107 4.293c-5.247-.131-9.318-5.532-9.318-5.532" transform="matrix(1.15 .02 -.022 1 2524.7 -221.633)"/>
    <path d="M225.45 381.879s4.602-3.557 9.858-3.585c5.256-.028 9.105 2.853 9.105 2.853s2.594 13.587 2.777 31.785c.152 15.009-2.991 25.776-2.991 25.776s-3.722 5.28-8.968 5.15c-5.246-.132-9.714-3.299-9.714-3.299" transform="matrix(1.15 .02 -.022 1 2524.7 -221.633)"/>
    <path d="M207.939 382.667s3.096-5.247 8.352-5.275c5.256-.028 9.392 4.254 9.392 4.254s2.495 16.097 2.495 31.107c0 15.01-1.963 27.734-1.963 27.734s-3.86 4.424-9.107 4.293c-5.246-.131-9.102-3.433-9.102-3.433" transform="matrix(1.15 .02 -.022 1 2524.7 -221.633)"/>
    <path d="M605.204 368.558s4.392-4.589 9.604-4.617c5.212-.028 8.42 3.195 8.42 3.195s4.568 16.013 4.564 30.692c-.004 14.678-3.397 30.839-3.397 30.839s-3.931 3.693-9.134 3.562c-5.202-.131-9.353-4.523-9.353-4.523" transform="matrix(1.15 -.02 -.022 -1 2047.923 604.252)"/>
    <path d="M585.128 370.603s4.464-5.904 9.984-5.973c7.78-.098 10.41 4.389 10.41 4.389s2.973 10.738.87 31.18c-1.504 14.601-.504 27.655-.504 27.655s-5.329 4.617-10.84 4.695c-6.497.092-9.258-3.443-9.258-3.443" transform="matrix(1.15 -.02 -.022 -1 2047.923 604.252)"/>
    <path d="M565.127 369.704s4.04-4.237 9.735-4.266c5.696-.028 10.096 5.045 10.096 5.045s3.593 14.837 3.588 29.515c-.005 14.679-2.723 29.801-2.723 29.801s-4.827 3.98-10.512 3.849c-5.685-.132-9.731-5.687-9.731-5.687" transform="matrix(1.15 -.02 -.022 -1 2047.923 604.252)"/>
    <path d="M546.71 427.791s4.24 5.39 9.486 5.521c5.246.131 9.349-5.328 9.349-5.328s2.843-12.635 2.848-27.314c.005-14.678-3.268-31.006-3.268-31.006s-4.31-3.725-9.522-3.052c-5.513.713-8.37 2.956-8.37 2.956" transform="matrix(1.15 -.02 -.022 -1 2047.923 604.252)"/>
    <path d="M528.682 371.043s3.473-4.616 8.73-4.644c5.256-.028 9.78 2.768 9.78 2.768s2.065 11.632 2.065 26.641c0 15.01-2.14 31.776-2.14 31.776s-3.86 4.424-9.107 4.293c-5.246-.131-8.83-2.273-8.83-2.273" transform="matrix(1.15 -.02 -.022 -1 2047.923 604.252)"/>
    <path d="M508.212 373.303s4.465-4.738 9.985-4.808c7.78-.098 10.894 2.582 10.894 2.582s1.972 16.865 1.968 31.543c-.005 14.679-1.968 27.916-1.968 27.916s-4.454 4.946-9.965 5.024c-6.496.092-10.081-2.978-10.081-2.978" transform="matrix(1.15 -.02 -.022 -1 2047.923 604.252)"/>
    <path d="M489.02 374.418s4.83-5.82 10.35-5.89c7.78-.098 10.529 3.664 10.529 3.664s1.723 16.576 1.719 31.254c-.005 14.679-1.72 28.204-1.72 28.204s-4.453 4.947-9.964 5.025c-6.496.092-10.347-6.168-10.347-6.168" transform="matrix(1.15 -.02 -.022 -1 2047.923 604.252)"/>
    <path d="M469.073 433.087s5.506 3.664 11.155 2.931c8.009-1.04 9.597-4.63 9.597-4.63s1.854-12.894 1.849-27.573c-.005-14.678-2.007-30.21-2.007-30.21s-4.839-4.713-10.524-4.581c-5.685.13-9.283 2.676-9.283 2.676" transform="matrix(1.15 -.02 -.022 -1 2047.923 604.252)"/>
    <path d="M449.088 374.016s4.032-5.82 9.552-5.89c7.78-.097 11.326 3.664 11.326 3.664s3.302 16.7 3.297 31.38c-.005 14.678-3.508 30.079-3.508 30.079s-4.242 2.946-9.753 3.024c-6.497.092-10.081-2.978-10.081-2.978" transform="matrix(1.15 -.02 -.022 -1 2047.923 604.252)"/>
    <path d="M430.83 373.56s3.719-3.022 8.93-3.05c5.213-.028 10.066 2.966 10.066 2.966s2.62 14.444 2.616 28.974c-.004 14.53-2.617 29.882-2.617 29.882s-4.54 2.88-9.743 2.75c-5.202-.13-9.09-2.487-9.09-2.487" transform="matrix(1.15 -.02 -.022 -1 2047.923 604.252)"/>
    <path d="M412.9 375.392s3.483-6.327 8.695-6.355c5.213-.029 9.247 4.307 9.247 4.307s3.742 14.9 3.737 29.58c-.004 14.678-3.737 29.878-3.737 29.878s-3.59 4.654-8.793 4.522c-5.203-.13-8.686-4.355-8.686-4.355" transform="matrix(1.15 -.02 -.022 -1 2047.923 604.252)"/>
    <path d="M393.413 378.352s3.53-5.709 8.772-6.001c7.769-.433 11.326 3.664 11.326 3.664s1.973 16.864 1.968 31.543c-.005 14.678-1.968 27.915-1.968 27.915s-3.94 3.817-9.452 3.895c-6.496.092-9.828-3.705-9.828-3.705" transform="matrix(1.15 -.02 -.022 -1 2047.923 604.252)"/>
    <path d="M374.83 380.704s3.56-5.163 9.08-5.23c7.78-.095 10 3.163 10 3.163s1.845 14.562 2.38 34.295c.385 14.17-2.114 22.793-2.114 22.793s-3.864 4.548-9.375 4.623c-6.497.089-9.138-3.444-9.138-3.444" transform="matrix(1.15 -.02 -.022 -1 2047.923 604.252)"/>
    <path d="M357.283 437.105s3.91 4.646 9.156 4.777c5.247.131 9.94-5.38 9.94-5.38s2.46-11.969 2.464-26.647c.005-14.679-2.885-31.674-2.885-31.674s-3.555-2.714-8.78-2.7c-5.559.014-9.726 3.71-9.726 3.71" transform="matrix(1.15 -.02 -.022 -1 2047.923 604.252)"/>
    <path d="M340.191 380.112s3.417-4.212 8.63-4.24c5.212-.028 9.01 2.986 9.01 2.986s2.62 14.445 2.616 28.974c-.004 14.53-2.616 29.882-2.616 29.882s-3.48 3.162-8.683 3.032c-5.203-.13-10.15-2.768-10.15-2.768" transform="matrix(1.15 -.02 -.022 -1 2047.923 604.252)"/>
    <path d="M319.638 381.913s4.572-5.531 10.268-5.56c5.696-.028 10.111 3.833 10.111 3.833s1.92 12.317 1.915 26.996c-.005 14.678-2.561 30.534-2.561 30.534s-4.402 3.087-10.088 2.956c-5.685-.131-10.014-5.37-10.014-5.37" transform="matrix(1.15 -.02 -.022 -1 2047.923 604.252)"/>
    <path d="M302.218 381.454s3.613-4.395 8.87-4.428c5.256-.034 8.924 4.574 8.924 4.574s2.05 10.822 2.03 24.79c-.02 13.968-2.183 29.573-2.183 29.573s-4.12 4.653-9.365 4.538c-5.246-.115-8.373-1.97-8.373-1.97" transform="matrix(1.15 -.02 -.022 -1 2047.923 604.252)"/>
    <path d="M283.593 380.845s3.885-5.19 9.14-5.218c5.257-.029 10.085 5.391 10.085 5.391s1.192 10.862 1.192 25.872-2.14 31.775-2.14 31.775-3.86 4.424-9.107 4.293c-5.246-.131-9.318-5.532-9.318-5.532" transform="matrix(1.15 -.02 -.022 -1 2047.923 604.252)"/>
    <path d="M265.256 381.119s4.602-3.557 9.858-3.585c5.257-.028 9.105 2.853 9.105 2.853s2.594 13.587 2.778 31.785c.151 15.009-2.992 25.776-2.992 25.776s-3.721 5.28-8.968 5.15c-5.246-.132-9.714-3.299-9.714-3.299" transform="matrix(1.15 -.02 -.022 -1 2047.923 604.252)"/>
    <path d="M247.698 381.908s3.143-5.248 8.4-5.276c5.256-.028 9.391 4.254 9.391 4.254s2.495 16.097 2.495 31.107c0 15.01-1.962 27.734-1.962 27.734s-3.861 4.424-9.107 4.293c-5.247-.131-9.103-3.433-9.103-3.433" transform="matrix(1.15 -.02 -.022 -1 2047.923 604.252)"/>
    <path d="M227.12 380.94s5.247-3.055 10.943-3.086c5.696-.03 9.497 4.151 9.497 4.151s3.358 15.58 3.345 29.824c-.014 14.244-2.955 28.449-2.955 28.449s-4.423 3.528-10.108 3.404c-5.685-.124-9.606-3.637-9.606-3.637" transform="matrix(1.15 -.02 -.022 -1 2047.923 604.252)"/>
    <path d="M605.204 368.558s4.392-4.589 9.604-4.617c5.212-.028 9.19 4.305 9.19 4.305s3.798 14.903 3.794 29.582c-.004 14.678-2.603 29.334-2.603 29.334s-3.834 3.434-9.036 3.303c-5.203-.131-10.245-2.759-10.245-2.759" transform="matrix(1.15 .02 -.022 1 1591.029 -220.439)"/>
    <path d="M585.553 368.053s4.04-4.237 9.735-4.266c5.696-.028 10.096 5.045 10.096 5.045s3.593 14.837 3.588 29.515c-.005 14.679-2.723 29.801-2.723 29.801s-4.827 3.98-10.512 3.849c-5.685-.132-9.731-5.687-9.731-5.687" transform="matrix(1.15 .02 -.022 1 1591.029 -220.439)"/>
    <path d="M567.135 426.14s4.24 5.39 9.487 5.521c5.246.131 9.349-5.328 9.349-5.328s2.843-12.635 2.848-27.314c.005-14.678-3.268-31.006-3.268-31.006s-4.31-3.725-9.522-3.052c-5.513.713-8.37 2.956-8.37 2.956" transform="matrix(1.15 .02 -.022 1 1591.029 -220.439)"/>
    <path d="M549.108 369.392s3.473-4.616 8.73-4.644c5.256-.028 9.78 2.768 9.78 2.768s2.065 11.632 2.065 26.641c0 15.01-2.14 31.776-2.14 31.776s-3.86 4.424-9.107 4.293c-5.246-.131-8.83-2.273-8.83-2.273" transform="matrix(1.15 .02 -.022 1 1591.029 -220.439)"/>
    <path d="M528.638 371.652s4.465-4.738 9.985-4.808c7.78-.098 10.894 2.582 10.894 2.582s1.972 16.865 1.968 31.543c-.005 14.679-1.968 27.916-1.968 27.916s-4.454 4.946-9.965 5.024c-6.496.092-10.081-2.978-10.081-2.978" transform="matrix(1.15 .02 -.022 1 1591.029 -220.439)"/>
    <path d="M509.446 372.767s4.83-5.82 10.35-5.89c7.78-.098 10.529 3.664 10.529 3.664s1.723 16.576 1.719 31.254c-.005 14.679-1.72 28.204-1.72 28.204s-4.453 4.947-9.964 5.025c-6.496.092-10.347-6.168-10.347-6.168" transform="matrix(1.15 .02 -.022 1 1591.029 -220.439)"/>
    <path d="M489.5 431.436s5.505 3.664 11.154 2.931c8.009-1.04 9.597-4.63 9.597-4.63s1.854-12.894 1.849-27.573c-.005-14.678-2.007-30.21-2.007-30.21s-4.84-4.713-10.524-4.581c-5.685.13-9.283 2.676-9.283 2.676" transform="matrix(1.15 .02 -.022 1 1591.029 -220.439)"/>
    <path d="M469.514 372.365s4.032-5.82 9.552-5.89c7.78-.097 11.326 3.664 11.326 3.664s3.302 16.7 3.297 31.38c-.005 14.678-3.508 30.079-3.508 30.079s-4.242 2.946-9.753 3.024c-6.497.092-10.081-2.978-10.081-2.978" transform="matrix(1.15 .02 -.022 1 1591.029 -220.439)"/>
    <path d="M451.257 371.909s3.718-3.022 8.93-3.05c5.212-.028 10.064 2.966 10.064 2.966s2.621 14.444 2.617 28.974c-.004 14.53-2.617 29.882-2.617 29.882s-4.54 2.88-9.743 2.75c-5.202-.129-9.09-2.487-9.09-2.487" transform="matrix(1.15 .02 -.022 1 1591.029 -220.439)"/>
    <path d="M433.888 371.559s2.921-4.145 8.133-4.173c5.213-.029 9.247 4.307 9.247 4.307s3.741 14.9 3.737 29.58c-.004 14.678-3.737 29.878-3.737 29.878s-3.59 4.654-8.793 4.522c-5.203-.13-8.686-4.355-8.686-4.355" transform="matrix(1.15 .02 -.022 1 1591.029 -220.439)"/>
    <path d="M414.95 373.691s2.805-5.159 8.047-5.45c7.769-.434 11.326 3.663 11.326 3.663s1.973 16.864 1.968 31.543c-.005 14.678-1.968 27.915-1.968 27.915s-3.94 3.817-9.452 3.895c-6.497.092-9.32-3.9-9.32-3.9" transform="matrix(1.15 .02 -.022 1 1591.029 -220.439)"/>
    <path d="M395.533 375.337s4.572-5.53 10.268-5.56c5.696-.027 9.564 3.24 9.564 3.24s2.467 12.91 2.462 27.589c-.005 14.678-2.561 30.534-2.561 30.534s-4.402 3.088-10.087 2.957c-5.686-.132-10.015-5.37-10.015-5.37" transform="matrix(1.15 .02 -.022 1 1591.029 -220.439)"/>
    <path d="M378.113 374.879s3.613-4.396 8.87-4.43c5.256-.032 8.924 4.576 8.924 4.576s2.05 10.822 2.03 24.79c-.02 13.967-2.183 29.572-2.183 29.572s-4.119 4.653-9.365 4.538c-5.246-.115-8.373-1.969-8.373-1.969" transform="matrix(1.15 .02 -.022 1 1591.029 -220.439)"/>
    <path d="M359.488 374.27s3.885-5.19 9.141-5.219c5.256-.028 10.084 5.392 10.084 5.392s1.192 10.862 1.192 25.871c0 15.01-2.14 31.776-2.14 31.776s-3.86 4.424-9.107 4.293c-5.246-.132-9.318-5.533-9.318-5.533" transform="matrix(1.15 .02 -.022 1 1591.029 -220.439)"/>
    <path d="M341.151 374.543s4.602-3.556 9.858-3.585c5.257-.028 9.105 2.854 9.105 2.854s2.594 13.586 2.778 31.785c.151 15.008-2.992 25.775-2.992 25.775s-3.721 5.28-8.968 5.15c-5.246-.132-9.713-3.298-9.713-3.298" transform="matrix(1.15 .02 -.022 1 1591.029 -220.439)"/>
    <path d="M323.64 375.331s3.096-5.246 8.352-5.275c5.257-.028 9.392 4.254 9.392 4.254s2.495 16.098 2.495 31.107c0 15.01-1.962 27.735-1.962 27.735s-3.86 4.424-9.107 4.292c-5.247-.13-9.103-3.432-9.103-3.432" transform="matrix(1.15 .02 -.022 1 1591.029 -220.439)"/>
    <path d="M303.224 376.17s4.68-4.767 10.2-4.837c7.78-.098 10.866 3.165 10.866 3.165s2.61 16.975 2.602 31.439c-.009 14.464-2.948 27.607-2.948 27.607s-3.687 4.742-9.198 4.82c-6.497.093-10.708-5.236-10.708-5.236" transform="matrix(1.15 .02 -.022 1 1591.029 -220.439)"/>
    <path d="M283.44 376.298s4.704-4.432 10.4-4.463c5.695-.03 9.496 4.15 9.496 4.15s3.358 15.58 3.345 29.825c-.014 14.244-2.428 27.171-2.428 27.171s-4.95 4.805-10.634 4.681c-5.685-.124-9.92-4.975-9.92-4.975" transform="matrix(1.15 .02 -.022 1 1591.029 -220.439)"/>
    <path d="M264.84 378.652s3.56-5.164 9.08-5.23c7.78-.095 9.998 3.163 9.998 3.163s1.846 14.561 2.382 34.294c.384 14.17-2.115 22.794-2.115 22.794s-3.864 4.547-9.375 4.623c-6.497.088-9.138-3.444-9.138-3.444" transform="matrix(1.15 .02 -.022 1 1591.029 -220.439)"/>
    <path d="M247.292 435.053s3.91 4.645 9.157 4.776c5.246.132 9.939-5.38 9.939-5.38s2.46-11.968 2.464-26.647c.005-14.678-2.884-31.673-2.884-31.673s-3.556-2.715-8.781-2.701c-5.559.014-9.726 3.71-9.726 3.71" transform="matrix(1.15 .02 -.022 1 1591.029 -220.439)"/>
    <path d="M230.2 378.06s3.418-4.213 8.63-4.24c5.212-.029 9.01 2.986 9.01 2.986s2.621 14.444 2.617 28.974c-.004 14.53-2.617 29.881-2.617 29.881s-3.48 3.163-8.683 3.033c-5.203-.13-10.15-2.769-10.15-2.769" transform="matrix(1.15 .02 -.022 1 1591.029 -220.439)"/>
    <path d="M604.793 371.42s4.391-4.588 9.603-4.616c5.213-.028 8.42 3.195 8.42 3.195s4.569 16.013 4.564 30.691c-.004 14.679-3.396 30.84-3.396 30.84s-3.932 3.693-9.134 3.561c-5.203-.13-9.354-4.522-9.354-4.522" transform="matrix(1.15 .02 -.022 1 1137.745 -222.472)"/>
    <path d="M584.716 373.465s4.465-5.903 9.985-5.972c7.78-.098 10.41 4.388 10.41 4.388s2.973 10.739.869 31.18c-1.503 14.602-.504 27.656-.504 27.656s-5.328 4.617-10.84 4.695c-6.496.092-9.257-3.443-9.257-3.443" transform="matrix(1.15 .02 -.022 1 1137.745 -222.472)"/>
    <path d="M564.716 372.567s4.039-4.238 9.735-4.266c5.695-.028 10.096 5.044 10.096 5.044s3.592 14.837 3.587 29.516c-.005 14.678-2.723 29.8-2.723 29.8s-4.827 3.98-10.512 3.85c-5.685-.132-9.73-5.688-9.73-5.688" transform="matrix(1.15 .02 -.022 1 1137.745 -222.472)"/>
    <path d="M546.298 430.654s4.24 5.39 9.486 5.52c5.247.132 9.35-5.327 9.35-5.327s2.843-12.636 2.847-27.314c.005-14.679-3.268-31.006-3.268-31.006s-4.309-3.726-9.522-3.052c-5.513.712-8.369 2.956-8.369 2.956" transform="matrix(1.15 .02 -.022 1 1137.745 -222.472)"/>
    <path d="M528.27 373.906s3.474-4.616 8.73-4.644c5.256-.029 9.78 2.768 9.78 2.768s2.066 11.632 2.066 26.641c0 15.01-2.14 31.776-2.14 31.776s-3.861 4.424-9.108 4.293c-5.246-.132-8.83-2.274-8.83-2.274" transform="matrix(1.15 .02 -.022 1 1137.745 -222.472)"/>
    <path d="M507.8 376.166s4.465-4.739 9.986-4.808c7.78-.098 10.893 2.582 10.893 2.582s1.973 16.864 1.968 31.543c-.005 14.679-1.968 27.915-1.968 27.915s-4.453 4.947-9.965 5.025c-6.496.092-10.08-2.978-10.08-2.978" transform="matrix(1.15 .02 -.022 1 1137.745 -222.472)"/>
    <path d="M488.609 377.28s4.83-5.82 10.35-5.89c7.78-.097 10.528 3.664 10.528 3.664s1.724 16.577 1.72 31.255c-.006 14.679-1.72 28.204-1.72 28.204s-4.453 4.946-9.965 5.024c-6.496.092-10.346-6.168-10.346-6.168" transform="matrix(1.15 .02 -.022 1 1137.745 -222.472)"/>
    <path d="M468.662 435.95s5.506 3.664 11.154 2.93c8.01-1.039 9.597-4.63 9.597-4.63s1.854-12.894 1.85-27.572c-.006-14.679-2.008-30.21-2.008-30.21s-4.839-4.713-10.524-4.582c-5.685.131-9.283 2.677-9.283 2.677" transform="matrix(1.15 .02 -.022 1 1137.745 -222.472)"/>
    <path d="M448.676 376.879s4.032-5.82 9.553-5.89c7.78-.098 11.326 3.664 11.326 3.664s3.301 16.7 3.297 31.379c-.005 14.679-3.509 30.08-3.509 30.08s-4.242 2.946-9.753 3.024c-6.496.092-10.081-2.978-10.081-2.978" transform="matrix(1.15 .02 -.022 1 1137.745 -222.472)"/>
    <path d="M430.974 376.288s3.163-2.888 8.375-2.916c5.213-.028 10.065 2.966 10.065 2.966s2.62 14.445 2.617 28.975c-.004 14.53-2.617 29.881-2.617 29.881s-4.541 2.881-9.744 2.751c-5.202-.13-9.09-2.487-9.09-2.487" transform="matrix(1.15 .02 -.022 1 1137.745 -222.472)"/>
    <path d="M413.286 375.989s3.429-4.076 8.641-4.104c5.212-.028 9.305 4.12 9.305 4.12s2.94 15.103 2.936 29.781c-.004 14.679-3.737 29.879-3.737 29.879s-3.591 4.653-8.794 4.522c-5.202-.131-8.18-4.684-8.18-4.684" transform="matrix(1.15 .02 -.022 1 1137.745 -222.472)"/>
    <path d="M393.413 378.352s3.545-4.923 8.787-5.215c7.769-.433 11.311 2.878 11.311 2.878s1.973 16.864 1.968 31.543c-.005 14.678-1.968 27.915-1.968 27.915s-3.943 3.686-9.454 3.764c-6.497.092-9.826-3.574-9.826-3.574" transform="matrix(1.15 .02 -.022 1 1137.745 -222.472)"/>
    <path d="M374.83 380.704s3.56-5.163 9.08-5.23c7.78-.095 10 3.163 10 3.163s1.845 14.562 2.38 34.295c.385 14.17-2.114 22.793-2.114 22.793s-3.864 4.548-9.375 4.623c-6.497.089-9.138-3.444-9.138-3.444" transform="matrix(1.15 .02 -.022 1 1137.745 -222.472)"/>
    <path d="M357.283 437.105s3.91 4.646 9.156 4.777c5.247.131 9.94-5.38 9.94-5.38s2.46-11.969 2.464-26.647c.005-14.679-2.885-31.674-2.885-31.674s-3.555-2.714-8.78-2.7c-5.559.014-9.726 3.71-9.726 3.71" transform="matrix(1.15 .02 -.022 1 1137.745 -222.472)"/>
    <path d="M340.191 380.112s3.417-4.212 8.63-4.24c5.212-.028 9.01 2.986 9.01 2.986s2.62 14.445 2.616 28.974c-.004 14.53-2.616 29.882-2.616 29.882s-3.48 3.162-8.683 3.032c-5.203-.13-10.15-2.768-10.15-2.768" transform="matrix(1.15 .02 -.022 1 1137.745 -222.472)"/>
    <path d="M319.638 381.913s4.572-5.531 10.268-5.56c5.696-.028 10.111 3.833 10.111 3.833s1.92 12.317 1.915 26.996c-.005 14.678-2.561 30.534-2.561 30.534s-4.402 3.087-10.088 2.956c-5.685-.131-10.014-5.37-10.014-5.37" transform="matrix(1.15 .02 -.022 1 1137.745 -222.472)"/>
    <path d="M302.218 381.454s3.613-4.395 8.87-4.428c5.256-.034 8.924 4.574 8.924 4.574s2.05 10.822 2.03 24.79c-.02 13.968-2.183 29.573-2.183 29.573s-4.12 4.653-9.365 4.538c-5.246-.115-8.373-1.97-8.373-1.97" transform="matrix(1.15 .02 -.022 1 1137.745 -222.472)"/>
    <path d="M283.593 380.845s3.885-5.19 9.14-5.218c5.257-.029 10.085 5.391 10.085 5.391s1.192 10.862 1.192 25.872-2.14 31.775-2.14 31.775-3.86 4.424-9.107 4.293c-5.246-.131-9.318-5.532-9.318-5.532" transform="matrix(1.15 .02 -.022 1 1137.745 -222.472)"/>
    <path d="M265.256 381.119s4.602-3.557 9.858-3.585c5.257-.028 9.105 2.853 9.105 2.853s2.594 13.587 2.778 31.785c.151 15.009-2.992 25.776-2.992 25.776s-3.721 5.28-8.968 5.15c-5.246-.132-9.714-3.299-9.714-3.299" transform="matrix(1.15 .02 -.022 1 1137.745 -222.472)"/>
    <path d="M247.698 381.908s3.143-5.248 8.4-5.276c5.256-.028 9.391 4.254 9.391 4.254s2.495 16.097 2.495 31.107c0 15.01-1.962 27.734-1.962 27.734s-3.861 4.424-9.107 4.293c-5.247-.131-9.103-3.433-9.103-3.433" transform="matrix(1.15 .02 -.022 1 1137.745 -222.472)"/>
    <path d="M227.12 380.94s5.247-3.055 10.943-3.086c5.696-.03 9.497 4.151 9.497 4.151s3.358 15.58 3.345 29.824c-.014 14.244-2.955 28.449-2.955 28.449s-4.423 3.528-10.108 3.404c-5.685-.124-8.056-2.83-8.056-2.83" transform="matrix(1.15 .02 -.022 1 1137.745 -222.472)"/>
    <path d="M605.84 368.226s3.756-4.257 8.968-4.285c5.212-.028 9.247 4.307 9.247 4.307s3.741 14.901 3.737 29.58c-.004 14.678-3.737 29.878-3.737 29.878s-3.591 4.654-8.794 4.523c-5.202-.131-9.353-4.523-9.353-4.523" transform="matrix(1.15 -.033 -.034 -1 687.975 611.03)"/>
    <path d="M584.995 370.477s4.032-5.82 9.552-5.89c7.78-.097 11.326 3.664 11.326 3.664s3.85 16.975 3.846 31.654c-.005 14.678-3.846 27.805-3.846 27.805s-4.004 5.846-9.515 5.924c-6.496.092-10.53-3.878-10.53-3.878" transform="matrix(1.15 -.033 -.034 -1 687.975 611.03)"/>
    <path d="M565.127 369.704s4.04-4.237 9.735-4.266c5.696-.028 10.096 5.045 10.096 5.045s3.593 14.837 3.588 29.515c-.005 14.679-2.723 29.801-2.723 29.801s-4.827 3.98-10.512 3.849c-5.685-.132-9.731-5.687-9.731-5.687" transform="matrix(1.15 -.033 -.034 -1 687.975 611.03)"/>
    <path d="M546.886 430.692s3.763 3.856 9.009 3.987c5.246.132 9.65-6.695 9.65-6.695s2.843-12.635 2.848-27.314c.005-14.678-3.268-31.006-3.268-31.006s-4.218-2.834-9.43-2.16c-5.514.712-8.782 4.749-8.782 4.749" transform="matrix(1.15 -.033 -.034 -1 687.975 611.03)"/>
    <path d="M528.642 372.85s3.097-5.247 8.353-5.275c5.256-.028 10 4.678 10 4.678s2.064 11.632 2.064 26.642c0 15.009-2.14 31.775-2.14 31.775s-3.86 4.424-9.107 4.293c-5.246-.131-9.102-3.432-9.102-3.432" transform="matrix(1.15 -.033 -.034 -1 687.975 611.03)"/>
    <path d="M507.9 374.728s4.464-4.739 9.984-4.808c7.78-.098 10.894 2.582 10.894 2.582s1.972 16.865 1.968 31.543c-.005 14.679-1.968 27.915-1.968 27.915s-4.454 4.947-9.965 5.025c-6.496.092-10.08-2.978-10.08-2.978" transform="matrix(1.15 -.033 -.034 -1 687.975 611.03)"/>
    <path d="M488.708 375.843s4.829-5.82 10.35-5.89c7.78-.098 10.528 3.663 10.528 3.663s1.723 16.577 1.719 31.255c-.005 14.679-1.72 28.204-1.72 28.204s-4.453 4.946-9.964 5.024c-6.496.093-10.347-6.168-10.347-6.168" transform="matrix(1.15 -.033 -.034 -1 687.975 611.03)"/>
    <path d="M468.76 434.512s5.506 3.664 11.155 2.93c8.01-1.039 9.597-4.63 9.597-4.63s1.854-12.894 1.85-27.572c-.006-14.679-2.008-30.21-2.008-30.21s-4.839-4.713-10.524-4.582c-5.685.131-9.412 5.5-9.412 5.5" transform="matrix(1.15 -.033 -.034 -1 687.975 611.03)"/>
    <path d="M449.098 377.658s4.514-6.064 10.035-6.134c7.78-.097 10.41 4.39 10.41 4.39s2.972 10.738.868 31.18c-1.502 14.6-1.967 27.56-1.967 27.56s-3.865 4.712-9.376 4.79c-6.496.092-9.138-3.568-9.138-3.568" transform="matrix(1.15 -.033 -.034 -1 687.975 611.03)"/>
    <path d="M429.415 378.546s4.032-5.82 9.552-5.89c7.78-.098 11.326 3.664 11.326 3.664s3.302 16.7 3.298 31.379c-.005 14.678-3.298 28.08-3.298 28.08s-4.453 4.946-9.964 5.024c-6.497.092-10.081-2.978-10.081-2.978" transform="matrix(1.15 -.033 -.034 -1 687.975 611.03)"/>
    <path d="M411.158 378.09s3.718-3.023 8.93-3.05c5.212-.029 10.065 2.965 10.065 2.965s2.62 14.445 2.616 28.975c-.004 14.53-2.616 29.881-2.616 29.881s-4.541 2.881-9.744 2.751c-5.202-.13-9.09-2.487-9.09-2.487" transform="matrix(1.15 -.033 -.034 -1 687.975 611.03)"/>
    <path d="M393.79 377.74s2.92-4.145 8.133-4.174c5.212-.028 9.246 4.307 9.246 4.307s3.742 14.901 3.737 29.58c-.004 14.679-3.737 29.879-3.737 29.879s-3.59 4.653-8.793 4.522c-5.202-.131-8.685-4.355-8.685-4.355" transform="matrix(1.15 -.033 -.034 -1 687.975 611.03)"/>
    <path d="M373.938 379.796s3.53-5.71 8.772-6.002c7.769-.432 11.327 3.664 11.327 3.664s1.972 16.865 1.968 31.543c-.005 14.679-1.968 27.915-1.968 27.915s-4.364 3.864-9.875 3.942c-6.496.092-9.559-1.672-9.559-1.672" transform="matrix(1.15 -.033 -.034 -1 687.975 611.03)"/>
    <path d="M354.004 378.848s4.039-2.249 9.735-2.277c5.696-.028 10.096 3.056 10.096 3.056s3.593 14.837 3.588 29.515c-.005 14.679-2.723 29.801-2.723 29.801s-4.827 3.98-10.513 3.849c-5.685-.131-9.73-5.966-9.73-5.966" transform="matrix(1.15 -.033 -.034 -1 687.975 611.03)"/>
    <path d="M335.024 381.464s3.56-5.163 9.08-5.23c7.78-.095 9.999 3.163 9.999 3.163s1.845 14.562 2.381 34.295c.385 14.17-2.114 22.793-2.114 22.793s-3.865 4.548-9.376 4.623c-6.496.089-9.138-3.444-9.138-3.444" transform="matrix(1.15 -.033 -.034 -1 687.975 611.03)"/>
    <path d="M317.477 437.865s3.91 4.646 9.156 4.777c5.247.131 9.94-5.38 9.94-5.38s2.46-11.969 2.464-26.647c.005-14.679-2.885-31.674-2.885-31.674s-3.555-2.715-8.78-2.7c-5.56.014-9.726 3.71-9.726 3.71" transform="matrix(1.15 -.033 -.034 -1 687.975 611.03)"/>
    <path d="M300.385 380.872s3.417-4.212 8.63-4.24c5.212-.028 9.01 2.986 9.01 2.986s2.62 14.444 2.616 28.974c-.004 14.53-2.616 29.882-2.616 29.882s-3.481 3.162-8.684 3.032c-5.202-.13-10.15-2.768-10.15-2.768" transform="matrix(1.15 -.033 -.034 -1 687.975 611.03)"/>
    <path d="M279.831 382.673s4.573-5.531 10.269-5.56c5.696-.028 10.11 3.833 10.11 3.833s1.92 12.317 1.916 26.995c-.005 14.679-2.562 30.535-2.562 30.535s-4.402 3.087-10.087 2.956c-5.685-.131-10.014-5.37-10.014-5.37" transform="matrix(1.15 -.033 -.034 -1 687.975 611.03)"/>
    <path d="M262.412 382.214s3.613-4.395 8.869-4.429c5.256-.033 8.924 4.575 8.924 4.575s2.05 10.822 2.03 24.79c-.02 13.967-2.182 29.573-2.182 29.573s-4.12 4.653-9.365 4.538c-5.247-.116-8.374-1.97-8.374-1.97" transform="matrix(1.15 -.033 -.034 -1 687.975 611.03)"/>
    <path d="M243.787 381.605s3.884-5.19 9.14-5.218c5.257-.029 10.085 5.391 10.085 5.391s1.192 10.862 1.192 25.872c0 15.009-2.14 31.775-2.14 31.775s-3.86 4.424-9.107 4.293c-5.247-.131-9.318-5.532-9.318-5.532" transform="matrix(1.15 -.033 -.034 -1 687.975 611.03)"/>
    <path d="M225.45 381.879s4.602-3.557 9.858-3.585c5.256-.028 9.105 2.853 9.105 2.853s2.594 13.587 2.777 31.785c.152 15.009-2.991 25.776-2.991 25.776s-3.722 5.28-8.968 5.15c-5.246-.132-9.714-3.299-9.714-3.299" transform="matrix(1.15 -.033 -.034 -1 687.975 611.03)"/>
    <path d="M205.947 380.554s4.624-2.29 9.877-2.493c7.196-.279 9.859 3.585 9.859 3.585s2.495 16.097 2.495 31.107c0 15.01-1.963 27.734-1.963 27.734s-3.86 4.424-9.107 4.293c-5.246-.131-9.161-2.684-9.161-2.684" transform="matrix(1.15 -.033 -.034 -1 687.975 611.03)"/>
    <path d="M605.204 368.558s4.392-4.589 9.604-4.617c5.212-.028 8.42 3.195 8.42 3.195s4.568 16.013 4.564 30.692c-.004 14.678-3.397 30.839-3.397 30.839s-3.931 3.693-9.134 3.562c-5.202-.131-9.353-4.523-9.353-4.523" transform="matrix(1.15 .03 -.031 1 207.079 -223.026)"/>
    <path d="M585.128 370.603s4.464-5.904 9.984-5.973c7.78-.098 10.41 4.389 10.41 4.389s2.973 10.738.87 31.18c-1.504 14.601-.504 27.655-.504 27.655s-5.329 4.617-10.84 4.695c-6.497.092-9.258-3.443-9.258-3.443" transform="matrix(1.15 .03 -.031 1 207.079 -223.026)"/>
    <path d="M565.127 369.704s4.04-4.237 9.735-4.266c5.696-.028 10.096 5.045 10.096 5.045s3.593 14.837 3.588 29.515c-.005 14.679-2.723 29.801-2.723 29.801s-4.827 3.98-10.512 3.849c-5.685-.132-9.731-5.687-9.731-5.687" transform="matrix(1.15 .03 -.031 1 207.079 -223.026)"/>
    <path d="M546.71 427.791s4.24 5.39 9.486 5.521c5.246.131 9.349-5.328 9.349-5.328s2.843-12.635 2.848-27.314c.005-14.678-3.268-31.006-3.268-31.006s-4.31-3.725-9.522-3.052c-5.513.713-8.37 2.956-8.37 2.956" transform="matrix(1.15 .03 -.031 1 207.079 -223.026)"/>
    <path d="M528.682 371.043s3.473-4.616 8.73-4.644c5.256-.028 9.78 2.768 9.78 2.768s2.065 11.632 2.065 26.641c0 15.01-2.14 31.776-2.14 31.776s-3.86 4.424-9.107 4.293c-5.246-.131-8.83-2.273-8.83-2.273" transform="matrix(1.15 .03 -.031 1 207.079 -223.026)"/>
    <path d="M508.212 373.303s4.465-4.738 9.985-4.808c7.78-.098 10.894 2.582 10.894 2.582s1.972 16.865 1.968 31.543c-.005 14.679-1.968 27.916-1.968 27.916s-4.454 4.946-9.965 5.024c-6.496.092-10.081-2.978-10.081-2.978" transform="matrix(1.15 .03 -.031 1 207.079 -223.026)"/>
    <path d="M489.02 374.418s4.83-5.82 10.35-5.89c7.78-.098 10.529 3.664 10.529 3.664s1.723 16.576 1.719 31.254c-.005 14.679-1.72 28.204-1.72 28.204s-4.453 4.947-9.964 5.025c-6.496.092-10.347-6.168-10.347-6.168" transform="matrix(1.15 .03 -.031 1 207.079 -223.026)"/>
    <path d="M469.073 433.087s5.506 3.664 11.155 2.931c8.009-1.04 9.597-4.63 9.597-4.63s1.854-12.894 1.849-27.573c-.005-14.678-2.007-30.21-2.007-30.21s-4.839-4.713-10.524-4.581c-5.685.13-9.283 2.676-9.283 2.676" transform="matrix(1.15 .03 -.031 1 207.079 -223.026)"/>
    <path d="M449.088 374.016s4.032-5.82 9.552-5.89c7.78-.097 11.326 3.664 11.326 3.664s3.302 16.7 3.297 31.38c-.005 14.678-3.508 30.079-3.508 30.079s-4.242 2.946-9.753 3.024c-6.497.092-10.081-2.978-10.081-2.978" transform="matrix(1.15 .03 -.031 1 207.079 -223.026)"/>
    <path d="M430.83 373.56s3.719-3.022 8.93-3.05c5.213-.028 10.066 2.966 10.066 2.966s2.62 14.444 2.616 28.974c-.004 14.53-2.617 29.882-2.617 29.882s-4.54 2.88-9.743 2.75c-5.202-.13-9.09-2.487-9.09-2.487" transform="matrix(1.15 .03 -.031 1 207.079 -223.026)"/>
    <path d="M412.9 375.392s3.483-6.327 8.695-6.355c5.213-.029 9.247 4.307 9.247 4.307s3.742 14.9 3.737 29.58c-.004 14.678-3.737 29.878-3.737 29.878s-3.59 4.654-8.793 4.522c-5.203-.13-8.686-4.355-8.686-4.355" transform="matrix(1.15 .03 -.031 1 207.079 -223.026)"/>
    <path d="M393.413 378.352s3.53-5.709 8.772-6.001c7.769-.433 11.326 3.664 11.326 3.664s1.973 16.864 1.968 31.543c-.005 14.678-1.968 27.915-1.968 27.915s-3.94 3.817-9.452 3.895c-6.496.092-9.828-3.705-9.828-3.705" transform="matrix(1.15 .03 -.031 1 207.079 -223.026)"/>
    <path d="M374.83 380.704s3.56-5.163 9.08-5.23c7.78-.095 10 3.163 10 3.163s1.845 14.562 2.38 34.295c.385 14.17-2.114 22.793-2.114 22.793s-3.864 4.548-9.375 4.623c-6.497.089-9.138-3.444-9.138-3.444" transform="matrix(1.15 .03 -.031 1 207.079 -223.026)"/>
    <path d="M357.283 437.105s3.91 4.646 9.156 4.777c5.247.131 9.94-5.38 9.94-5.38s2.46-11.969 2.464-26.647c.005-14.679-2.885-31.674-2.885-31.674s-3.555-2.714-8.78-2.7c-5.559.014-9.726 3.71-9.726 3.71" transform="matrix(1.15 .03 -.031 1 207.079 -223.026)"/>
    <path d="M340.191 380.112s3.417-4.212 8.63-4.24c5.212-.028 9.01 2.986 9.01 2.986s2.62 14.445 2.616 28.974c-.004 14.53-2.616 29.882-2.616 29.882s-3.48 3.162-8.683 3.032c-5.203-.13-10.15-2.768-10.15-2.768" transform="matrix(1.15 .03 -.031 1 207.079 -223.026)"/>
    <path d="M319.638 381.913s4.572-5.531 10.268-5.56c5.696-.028 10.111 3.833 10.111 3.833s1.92 12.317 1.915 26.996c-.005 14.678-2.561 30.534-2.561 30.534s-4.402 3.087-10.088 2.956c-5.685-.131-10.014-5.37-10.014-5.37" transform="matrix(1.15 .03 -.031 1 207.079 -223.026)"/>
    <path d="M302.218 381.454s3.613-4.395 8.87-4.428c5.256-.034 8.924 4.574 8.924 4.574s2.05 10.822 2.03 24.79c-.02 13.968-2.183 29.573-2.183 29.573s-4.12 4.653-9.365 4.538c-5.246-.115-8.373-1.97-8.373-1.97" transform="matrix(1.15 .03 -.031 1 207.079 -223.026)"/>
    <path d="M283.593 380.845s3.885-5.19 9.14-5.218c5.257-.029 10.085 5.391 10.085 5.391s1.192 10.862 1.192 25.872-2.14 31.775-2.14 31.775-3.86 4.424-9.107 4.293c-5.246-.131-9.318-5.532-9.318-5.532" transform="matrix(1.15 .03 -.031 1 207.079 -223.026)"/>
    <path d="M265.256 381.119s4.602-3.557 9.858-3.585c5.257-.028 9.105 2.853 9.105 2.853s2.594 13.587 2.778 31.785c.151 15.009-2.992 25.776-2.992 25.776s-3.721 5.28-8.968 5.15c-5.246-.132-9.714-3.299-9.714-3.299" transform="matrix(1.15 .03 -.031 1 207.079 -223.026)"/>
    <path d="M247.698 381.908s3.143-5.248 8.4-5.276c5.256-.028 9.391 4.254 9.391 4.254s2.495 16.097 2.495 31.107c0 15.01-1.962 27.734-1.962 27.734s-3.861 4.424-9.107 4.293c-5.247-.131-9.103-3.433-9.103-3.433" transform="matrix(1.15 .03 -.031 1 207.079 -223.026)"/>
    <path d="M227.866 379.566s4.455-3.393 10.151-3.423c5.696-.031 9.543 5.862 9.543 5.862s3.358 15.58 3.345 29.824c-.014 14.244-2.955 28.449-2.955 28.449s-4.2 3.07-9.885 2.946c-5.685-.124-9.44-3.28-9.44-3.28" transform="matrix(1.15 .03 -.031 1 207.079 -223.026)"/>
    <path d="M604.793 371.42s4.391-4.588 9.603-4.616c5.213-.028 8.42 3.195 8.42 3.195s4.569 16.013 4.564 30.691c-.004 14.679-2.632 29.833-2.632 29.833s-4.696 4.7-9.898 4.568c-5.203-.13-9.354-4.522-9.354-4.522" transform="matrix(1.15 -.02 -.022 -1 -251.745 605.157)"/>
    <path d="M584.716 373.465s4.465-5.903 9.985-5.972c7.78-.098 10.41 4.388 10.41 4.388s2.973 10.739.869 31.18c-1.503 14.602-.504 27.656-.504 27.656s-5.328 4.617-10.84 4.695c-6.496.092-9.257-3.443-9.257-3.443" transform="matrix(1.15 -.02 -.022 -1 -251.745 605.157)"/>
    <path d="M564.716 372.567s4.039-4.238 9.735-4.266c5.695-.028 10.096 5.044 10.096 5.044s3.592 14.837 3.587 29.516c-.005 14.678-2.723 29.8-2.723 29.8s-4.827 3.98-10.512 3.85c-5.685-.132-9.73-5.688-9.73-5.688" transform="matrix(1.15 -.02 -.022 -1 -251.745 605.157)"/>
    <path d="M546.298 430.654s4.24 5.39 9.486 5.52c5.247.132 9.35-5.327 9.35-5.327s2.843-12.636 2.847-27.314c.005-14.679-3.268-31.006-3.268-31.006s-4.309-3.726-9.522-3.052c-5.513.712-8.369 2.956-8.369 2.956" transform="matrix(1.15 -.02 -.022 -1 -251.745 605.157)"/>
    <path d="M528.27 373.906s3.474-4.616 8.73-4.644c5.256-.029 9.78 2.768 9.78 2.768s2.066 11.632 2.066 26.641c0 15.01-2.14 31.776-2.14 31.776s-3.861 4.424-9.108 4.293c-5.246-.132-8.83-2.274-8.83-2.274" transform="matrix(1.15 -.02 -.022 -1 -251.745 605.157)"/>
    <path d="M507.8 376.166s4.465-4.739 9.986-4.808c7.78-.098 10.893 2.582 10.893 2.582s1.973 16.864 1.968 31.543c-.005 14.679-1.968 27.915-1.968 27.915s-4.453 4.947-9.965 5.025c-6.496.092-10.08-2.978-10.08-2.978" transform="matrix(1.15 -.02 -.022 -1 -251.745 605.157)"/>
    <path d="M488.609 377.28s4.83-5.82 10.35-5.89c7.78-.097 10.528 3.664 10.528 3.664s1.724 16.577 1.72 31.255c-.006 14.679-1.72 28.204-1.72 28.204s-4.453 4.946-9.965 5.024c-6.496.092-10.346-6.168-10.346-6.168" transform="matrix(1.15 -.02 -.022 -1 -251.745 605.157)"/>
    <path d="M468.662 435.95s5.506 3.664 11.154 2.93c8.01-1.039 9.597-4.63 9.597-4.63s1.854-12.894 1.85-27.572c-.006-14.679-2.008-30.21-2.008-30.21s-4.839-4.713-10.524-4.582c-5.685.131-9.283 2.677-9.283 2.677" transform="matrix(1.15 -.02 -.022 -1 -251.745 605.157)"/>
    <path d="M448.676 376.879s4.032-5.82 9.553-5.89c7.78-.098 11.326 3.664 11.326 3.664s3.301 16.7 3.297 31.379c-.005 14.679-3.509 30.08-3.509 30.08s-4.242 2.946-9.753 3.024c-6.496.092-10.081-2.978-10.081-2.978" transform="matrix(1.15 -.02 -.022 -1 -251.745 605.157)"/>
    <path d="M430.974 376.288s3.163-2.888 8.375-2.916c5.213-.028 10.065 2.966 10.065 2.966s2.62 14.445 2.617 28.975c-.004 14.53-2.617 29.881-2.617 29.881s-4.541 2.881-9.744 2.751c-5.202-.13-9.09-2.487-9.09-2.487" transform="matrix(1.15 -.02 -.022 -1 -251.745 605.157)"/>
    <path d="M413.286 375.989s3.429-4.076 8.641-4.104c5.212-.028 9.305 4.12 9.305 4.12s2.94 15.103 2.936 29.781c-.004 14.679-3.737 29.879-3.737 29.879s-3.591 4.653-8.794 4.522c-5.202-.131-8.18-4.684-8.18-4.684" transform="matrix(1.15 -.02 -.022 -1 -251.745 605.157)"/>
    <path d="M393.413 378.352s3.545-4.923 8.787-5.215c7.769-.433 11.311 2.878 11.311 2.878s1.973 16.864 1.968 31.543c-.005 14.678-1.968 27.915-1.968 27.915s-3.943 3.686-9.454 3.764c-6.497.092-9.826-3.574-9.826-3.574" transform="matrix(1.15 -.02 -.022 -1 -251.745 605.157)"/>
    <path d="M374.83 380.704s3.56-5.163 9.08-5.23c7.78-.095 10 3.163 10 3.163s1.845 14.562 2.38 34.295c.385 14.17-2.114 22.793-2.114 22.793s-3.864 4.548-9.375 4.623c-6.497.089-9.138-3.444-9.138-3.444" transform="matrix(1.15 -.02 -.022 -1 -251.745 605.157)"/>
    <path d="M357.283 437.105s3.91 4.646 9.156 4.777c5.247.131 9.94-5.38 9.94-5.38s2.46-11.969 2.464-26.647c.005-14.679-2.885-31.674-2.885-31.674s-3.555-2.714-8.78-2.7c-5.559.014-9.726 3.71-9.726 3.71" transform="matrix(1.15 -.02 -.022 -1 -251.745 605.157)"/>
    <path d="M340.191 380.112s3.417-4.212 8.63-4.24c5.212-.028 9.01 2.986 9.01 2.986s2.62 14.445 2.616 28.974c-.004 14.53-2.616 29.882-2.616 29.882s-3.48 3.162-8.683 3.032c-5.203-.13-10.15-2.768-10.15-2.768" transform="matrix(1.15 -.02 -.022 -1 -251.745 605.157)"/>
    <path d="M319.638 381.913s4.572-5.531 10.268-5.56c5.696-.028 10.111 3.833 10.111 3.833s1.92 12.317 1.915 26.996c-.005 14.678-2.561 30.534-2.561 30.534s-4.402 3.087-10.088 2.956c-5.685-.131-10.014-5.37-10.014-5.37" transform="matrix(1.15 -.02 -.022 -1 -251.745 605.157)"/>
    <path d="M302.218 381.454s3.613-4.395 8.87-4.428c5.256-.034 8.924 4.574 8.924 4.574s2.05 10.822 2.03 24.79c-.02 13.968-2.183 29.573-2.183 29.573s-4.12 4.653-9.365 4.538c-5.246-.115-8.373-1.97-8.373-1.97" transform="matrix(1.15 -.02 -.022 -1 -251.745 605.157)"/>
    <path d="M283.593 380.845s3.885-5.19 9.14-5.218c5.257-.029 10.085 5.391 10.085 5.391s1.192 10.862 1.192 25.872-2.14 31.775-2.14 31.775-3.86 4.424-9.107 4.293c-5.246-.131-9.318-5.532-9.318-5.532" transform="matrix(1.15 -.02 -.022 -1 -251.745 605.157)"/>
    <path d="M265.256 381.119s4.602-3.557 9.858-3.585c5.257-.028 9.105 2.853 9.105 2.853s2.594 13.587 2.778 31.785c.151 15.009-2.992 25.776-2.992 25.776s-3.721 5.28-8.968 5.15c-5.246-.132-9.714-3.299-9.714-3.299" transform="matrix(1.15 -.02 -.022 -1 -251.745 605.157)"/>
    <path d="M247.698 381.908s3.143-5.248 8.4-5.276c5.256-.028 9.391 4.254 9.391 4.254s2.495 16.097 2.495 31.107c0 15.01-1.962 27.734-1.962 27.734s-3.861 4.424-9.107 4.293c-5.247-.131-9.103-3.433-9.103-3.433" transform="matrix(1.15 -.02 -.022 -1 -251.745 605.157)"/>
    <path d="M227.12 380.94s5.247-3.055 10.943-3.086c5.696-.03 9.497 4.151 9.497 4.151s3.358 15.58 3.345 29.824c-.014 14.244-2.955 28.449-2.955 28.449s-4.423 3.528-10.108 3.404c-5.685-.124-9.606-3.637-9.606-3.637" transform="matrix(1.15 -.02 -.022 -1 -251.745 605.157)"/>
  </g>
</svg>
